# Blender v2.82 (sub 7) OBJ File: 'VideoDisplay.blend'
# www.blender.org
mtllib VideoDisplay.mtl
o Cube
v -0.419242 0.552964 0.054827
v -0.419242 1.943557 0.054827
v -0.487500 0.498260 0.206540
v -0.487500 1.998260 0.206540
v 0.419242 0.552964 0.054827
v 0.419242 1.943557 0.054827
v 0.487500 0.498260 0.206540
v 0.487500 1.998260 0.206540
v 0.487500 1.998260 0.119606
v -0.487500 0.498260 0.119606
v 0.487500 0.498260 0.119606
v -0.487500 1.998260 0.119606
v 0.419242 0.552964 0.097452
v -0.419242 1.943557 0.097452
v 0.419242 1.943557 0.097452
v -0.419242 0.552964 0.097452
v 0.431064 1.944654 0.206540
v 0.431064 0.551866 0.206540
v -0.431064 0.551866 0.206540
v -0.431064 1.944654 0.206540
v 0.431064 1.944654 0.194623
v 0.431064 0.551866 0.194623
v -0.431064 0.551866 0.194623
v -0.431064 1.944654 0.194623
v -0.312605 1.943557 0.067534
v 0.312605 1.943557 0.067534
v -0.312605 1.943557 0.084745
v 0.312605 1.943557 0.084745
v -0.419242 2.034594 0.097452
v -0.419242 2.034594 0.054827
v 0.419242 2.034594 0.054827
v 0.419242 2.034594 0.097452
v -0.312605 2.034594 0.084745
v -0.312605 2.034594 0.067534
v 0.312605 2.034594 0.067534
v 0.312605 2.034594 0.084745
v -0.419242 2.092140 0.097452
v -0.419242 2.092140 0.054827
v 0.419242 2.092140 0.054827
v 0.419242 2.092140 0.097452
v -0.312605 2.092140 0.084745
v -0.312605 2.092140 0.067534
v 0.312605 2.092140 0.067534
v 0.312605 2.092140 0.084745
v -0.573462 1.994594 0.097452
v -0.573462 1.994594 0.054827
v 0.573462 1.994594 0.054827
v 0.573462 1.994594 0.097452
v -0.576459 2.034594 0.097452
v -0.576459 2.034594 0.054827
v 0.576459 2.034594 0.054827
v 0.576459 2.034594 0.097452
v -0.576459 2.092140 0.097452
v -0.576459 2.092140 0.054827
v 0.576459 2.092140 0.054827
v 0.576459 2.092140 0.097452
v 0.576459 2.034594 0.035266
v 0.419242 2.034594 0.035266
v 0.419242 2.092140 0.035266
v 0.576459 2.092140 0.035266
v -0.419242 2.034594 0.117012
v -0.419242 2.092140 0.117012
v -0.419242 2.092140 0.035266
v -0.419242 2.034594 0.035266
v 0.419242 2.034594 0.117012
v 0.419242 2.092140 0.117012
v -0.576459 2.034594 0.117012
v -0.576459 2.092140 0.117012
v -0.576459 2.092140 0.035266
v -0.576459 2.034594 0.035266
v 0.576459 2.034594 0.117012
v 0.576459 2.092140 0.117012
v 0.419242 2.135955 0.054827
v 0.576459 2.135955 0.054827
v 0.576459 2.135955 0.097452
v 0.419242 2.135955 0.097452
v -0.419242 2.135955 0.097452
v -0.576459 2.135955 0.097452
v -0.419242 2.135955 0.054827
v -0.576459 2.135955 0.054827
v 0.419242 2.135955 0.035266
v 0.576459 2.135955 0.035266
v 0.576459 2.135955 0.117012
v 0.419242 2.135955 0.117012
v -0.419242 2.135955 0.117012
v -0.576459 2.135955 0.117012
v -0.419242 2.135955 0.035266
v -0.576459 2.135955 0.035266
v -0.732240 2.103542 0.095542
v -0.732240 2.103542 0.057138
v 0.732240 2.103542 0.057138
v 0.732240 2.103542 0.095542
v -0.716052 2.086839 0.114744
v -0.716052 2.086839 0.037936
v 0.716052 2.086839 0.037936
v 0.716052 2.086839 0.114744
v 0.732240 2.136949 0.057138
v 0.716052 2.153653 0.037936
v -0.732240 2.136949 0.095542
v -0.732240 2.136949 0.057138
v 0.732240 2.136949 0.095542
v -0.716052 2.153653 0.114744
v -0.716052 2.153653 0.037936
v 0.716052 2.153653 0.114744
v -0.783947 2.086839 0.114744
v -0.783947 2.086839 0.037936
v 0.783947 2.086839 0.037936
v 0.783947 2.086839 0.114744
v -0.783947 2.153653 0.114744
v -0.783947 2.153653 0.037936
v 0.783947 2.153653 0.037936
v 0.783947 2.153653 0.114744
v -0.716052 0.000000 0.114744
v -0.716052 0.000000 0.037936
v 0.716052 0.000000 0.037936
v 0.716052 0.000000 0.114744
v -0.783947 0.000000 0.114744
v -0.783947 0.000000 0.037936
v 0.783947 0.000000 0.037936
v 0.783947 0.000000 0.114744
v -0.716052 2.177401 0.114744
v -0.716052 2.177401 0.037936
v 0.716052 2.177401 0.037936
v 0.716052 2.177401 0.114744
v -0.783947 2.177401 0.114744
v -0.783947 2.177401 0.037936
v 0.783947 2.177401 0.037936
v 0.783947 2.177401 0.114744
vt 0.625000 0.625000
vt 0.875000 0.625000
vt 0.875000 0.750000
vt 0.625000 0.750000
vt 0.625000 0.000000
vt 0.375000 0.000000
vt 0.375000 0.000000
vt 0.625000 0.000000
vt 0.375000 0.125000
vt 0.625000 0.125000
vt 0.625000 0.250000
vt 0.375000 0.250000
vt 0.125000 0.625000
vt 0.375000 0.625000
vt 0.375000 0.750000
vt 0.125000 0.750000
vt 0.625000 0.500000
vt 0.375000 0.500000
vt 0.375000 0.625000
vt 0.625000 0.625000
vt 0.125000 0.625000
vt 0.625000 0.125000
vt 0.375000 0.125000
vt 0.875000 0.625000
vt 0.875000 0.500000
vt 0.375000 0.625000
vt 0.375000 0.625000
vt 0.375000 0.625000
vt 0.625000 0.750000
vt 0.875000 0.750000
vt 0.875000 0.750000
vt 0.625000 0.750000
vt 0.375000 0.750000
vt 0.125000 0.750000
vt 0.375000 0.000000
vt 0.625000 0.000000
vt 0.375000 0.750000
vt 0.125000 0.750000
vt 0.125000 0.500000
vt 0.375000 0.500000
vt 0.125000 0.625000
vt 0.375000 0.250000
vt 0.375000 0.250000
vt 0.375000 0.250000
vt 0.375000 0.250000
vt 0.375000 0.250000
vt 0.375000 0.250000
vt 0.375000 0.250000
vt 0.375000 0.500000
vt 0.375000 0.500000
vt 0.375000 0.625000
vt 0.125000 0.625000
vt 0.125000 0.500000
vt 0.375000 0.250000
vt 0.375000 0.125000
vt 0.125000 0.625000
vt 0.125000 0.625000
vt 0.125000 0.625000
vt 0.375000 0.500000
vt 0.375000 0.500000
vt 0.375000 0.625000
vt 0.375000 0.125000
vt 0.375000 0.250000
vt 0.375000 0.250000
vt 0.375000 0.125000
vt 0.125000 0.625000
vt 0.125000 0.625000
vt 0.125000 0.500000
vt 0.375000 0.250000
vt 0.375000 0.250000
vt 0.375000 0.500000
vt 0.375000 0.625000
vt 0.375000 0.625000
vt 0.375000 0.500000
vt 0.375000 0.500000
vt 0.375000 0.625000
vt 0.375000 0.125000
vt 0.375000 0.125000
vt 0.375000 0.250000
vt 0.375000 0.125000
vt 0.375000 0.125000
vt 0.125000 0.625000
vt 0.125000 0.625000
vt 0.125000 0.625000
vt 0.125000 0.625000
vt 0.375000 0.250000
vt 0.375000 0.625000
vt 0.375000 0.625000
vt 0.375000 0.625000
vt 0.375000 0.625000
vt 0.375000 0.500000
vt 0.375000 0.500000
vt 0.375000 0.500000
vt 0.375000 0.500000
vt 0.125000 0.625000
vt 0.125000 0.625000
vt 0.375000 0.625000
vt 0.375000 0.625000
vt 0.375000 0.500000
vt 0.375000 0.500000
vt 0.375000 0.625000
vt 0.375000 0.625000
vt 0.375000 0.250000
vt 0.375000 0.250000
vt 0.375000 0.500000
vt 0.375000 0.500000
vt 0.375000 0.125000
vt 0.375000 0.125000
vt 0.375000 0.125000
vt 0.375000 0.125000
vt 0.125000 0.625000
vt 0.375000 0.625000
vt 0.375000 0.625000
vt 0.375000 0.500000
vt 0.375000 0.500000
vt 0.375000 0.250000
vt 0.375000 0.250000
vt 0.375000 0.125000
vt 0.375000 0.125000
vt 0.375000 0.625000
vt 0.375000 0.500000
vt 0.375000 0.500000
vt 0.375000 0.625000
vt 0.375000 0.250000
vt 0.375000 0.125000
vt 0.375000 0.125000
vt 0.375000 0.250000
vt 0.375000 0.125000
vt 0.375000 0.250000
vt 0.375000 0.250000
vt 0.375000 0.125000
vt 0.375000 0.625000
vt 0.375000 0.625000
vt 0.375000 0.625000
vt 0.375000 0.500000
vt 0.375000 0.625000
vt 0.375000 0.500000
vt 0.375000 0.125000
vt 0.375000 0.250000
vt 0.375000 0.125000
vt 0.375000 0.250000
vt 0.375000 0.625000
vt 0.375000 0.625000
vt 0.375000 0.500000
vt 0.375000 0.500000
vt 0.375000 0.125000
vt 0.375000 0.250000
vt 0.375000 0.250000
vt 0.375000 0.125000
vt 0.375000 0.500000
vt 0.375000 0.500000
vt 0.625000 1.000000
vt 0.375000 1.000000
vn 0.0000 -1.0000 0.0000
vn 0.0000 0.0000 1.0000
vn 1.0000 -0.0000 0.0000
vn 0.0000 1.0000 0.0000
vn -1.0000 0.0000 0.0000
vn 0.0000 0.0000 -1.0000
vn -0.3087 0.0000 -0.9512
vn 0.0000 0.3754 -0.9269
vn 0.0000 -0.3754 -0.9269
vn 0.1183 0.0000 0.9930
vn 0.3087 -0.0000 -0.9512
vn -0.1183 0.0000 -0.9930
vn 0.3142 -0.9494 0.0000
vn -0.1183 0.0000 0.9930
vn 0.1183 0.0000 -0.9930
vn -0.9972 -0.0747 0.0000
vn 0.9972 -0.0747 0.0000
vn -0.3142 -0.9494 0.0000
vn 0.7181 0.6959 0.0000
vn -0.7181 0.6959 0.0000
vn 0.7181 -0.6959 0.0000
vn -0.7181 -0.6959 0.0000
vn -0.7646 0.0000 0.6446
vn 0.7646 0.0000 0.6446
vn -0.7646 0.0000 -0.6446
vn 0.7646 0.0000 -0.6446
usemtl Frame
s off
f 10/1/1 11/2/1 7/3/1 3/4/1
f 7/5/2 8/6/2 17/7/2 18/8/2
f 15/9/3 13/10/3 5/11/3 6/12/3
f 9/13/4 12/14/4 4/15/4 8/16/4
f 12/14/5 10/1/5 3/4/5 4/15/5
f 6/12/6 5/11/6 1/17/6 2/18/6
f 14/19/7 16/20/7 10/1/7 12/14/7
f 15/21/8 14/19/8 12/14/8 9/13/8
f 8/6/3 7/5/3 11/22/3 9/23/3
f 16/20/9 13/24/9 11/2/9 10/1/9
f 1/17/1 5/25/1 13/24/1 16/20/1
f 14/19/10 27/26/10 33/27/10 29/28/10
f 2/18/5 1/17/5 16/20/5 14/19/5
f 9/23/11 11/22/11 13/10/11 15/9/11
f 19/29/4 18/30/4 22/31/4 23/32/4
f 8/16/2 4/15/2 20/33/2 17/34/2
f 3/4/2 7/3/2 18/30/2 19/29/2
f 4/15/2 3/4/2 19/29/2 20/33/2
f 18/8/5 17/7/5 21/35/5 22/36/5
f 17/34/1 20/33/1 24/37/1 21/38/1
f 20/33/3 19/29/3 23/32/3 24/37/3
f 26/39/4 25/40/4 27/26/4 28/41/4
f 6/12/12 26/42/12 35/43/12 31/44/12
f 14/19/4 15/21/4 28/41/4 27/26/4
f 6/12/4 2/18/4 25/40/4 26/42/4
f 55/45/3 51/46/3 57/47/3 60/48/3
f 33/27/3 34/49/3 42/50/3 41/51/3
f 26/39/5 28/41/5 36/52/5 35/53/5
f 15/9/13 6/12/13 47/54/13 48/55/13
f 32/56/2 15/21/2 48/57/2 52/58/2
f 28/41/14 15/21/14 32/56/14 36/52/14
f 25/40/15 2/18/15 30/59/15 34/49/15
f 27/26/3 25/40/3 34/49/3 33/27/3
f 38/60/4 37/61/4 41/51/4 42/50/4
f 40/62/4 39/63/4 43/64/4 44/65/4
f 36/52/14 32/56/14 40/66/14 44/67/14
f 34/49/15 30/59/15 38/60/15 42/50/15
f 35/53/5 36/52/5 44/67/5 43/68/5
f 39/63/2 55/45/2 74/69/2 73/70/2
f 31/44/12 35/43/12 43/64/12 39/63/12
f 29/28/10 33/27/10 41/51/10 37/61/10
f 50/71/5 49/72/5 53/73/5 54/74/5
f 46/75/16 45/76/16 49/72/16 50/71/16
f 48/55/17 47/54/17 51/46/17 52/77/17
f 52/77/3 51/46/3 55/45/3 56/78/3
f 14/19/2 29/28/2 49/72/2 45/76/2
f 6/12/6 31/44/6 51/46/6 47/54/6
f 51/46/1 31/44/1 58/79/1 57/47/1
f 37/61/4 38/60/4 54/74/4 53/73/4
f 30/59/6 2/18/6 46/75/6 50/71/6
f 52/77/3 56/78/3 72/80/3 71/81/3
f 2/18/18 14/19/18 45/76/18 46/75/18
f 39/63/4 40/62/4 56/78/4 55/45/4
f 66/82/2 65/83/2 71/84/2 72/85/2
f 58/79/6 59/86/6 60/48/6 57/47/6
f 61/87/2 62/88/2 68/89/2 67/90/2
f 63/91/6 64/92/6 70/93/6 69/94/6
f 66/82/2 72/85/2 83/95/2 84/96/2
f 37/61/6 53/73/6 78/97/6 77/98/6
f 31/44/5 39/63/5 59/86/5 58/79/5
f 32/56/1 52/58/1 71/84/1 65/83/1
f 30/59/1 50/71/1 70/93/1 64/92/1
f 29/28/3 37/61/3 62/88/3 61/87/3
f 69/94/5 54/74/5 80/99/5 88/100/5
f 38/60/3 30/59/3 64/92/3 63/91/3
f 53/73/5 49/72/5 67/90/5 68/89/5
f 49/72/1 29/28/1 61/87/1 67/90/1
f 40/66/5 32/56/5 65/83/5 66/82/5
f 50/71/5 54/74/5 69/94/5 70/93/5
f 77/98/4 78/97/4 86/101/4 85/102/4
f 73/70/4 74/69/4 82/103/4 81/104/4
f 80/99/4 79/105/4 87/106/4 88/100/4
f 75/107/4 76/108/4 84/109/4 83/110/4
f 54/74/2 38/60/2 79/105/2 80/99/2
f 53/73/5 68/89/5 86/101/5 78/97/5
f 68/89/2 62/88/2 85/102/2 86/101/2
f 62/88/3 37/61/3 77/98/3 85/102/3
f 63/91/6 69/94/6 88/100/6 87/106/6
f 55/45/3 60/48/3 82/103/3 74/69/3
f 40/66/5 66/82/5 84/96/5 76/111/5
f 56/78/6 40/62/6 76/108/6 75/107/6
f 59/86/5 39/63/5 73/70/5 81/104/5
f 60/48/6 59/86/6 81/104/6 82/103/6
f 72/80/3 56/78/3 75/107/3 83/110/3
f 38/60/3 63/91/3 87/106/3 79/105/3
f 89/112/19 93/113/19 94/114/19 90/115/19
f 91/116/20 95/117/20 96/118/20 92/119/20
f 89/112/1 90/115/1 91/116/1 92/119/1
f 99/120/21 100/121/21 103/122/21 102/123/21
f 97/124/22 101/125/22 104/126/22 98/127/22
f 99/120/4 101/125/4 97/124/4 100/121/4
f 95/117/23 91/116/23 97/124/23 98/127/23
f 91/116/6 90/115/6 100/121/6 97/124/6
f 90/115/24 94/114/24 103/122/24 100/121/24
f 92/119/25 96/118/25 104/126/25 101/125/25
f 112/128/3 111/129/3 127/130/3 128/131/3
f 89/112/2 92/119/2 101/125/2 99/120/2
f 93/113/26 89/112/26 99/120/26 102/123/26
f 93/113/2 105/132/2 117/133/2 113/134/2
f 106/135/5 105/132/5 109/136/5 110/137/5
f 108/138/3 107/139/3 111/129/3 112/128/3
f 103/122/6 94/114/6 106/135/6 110/137/6
f 95/117/6 98/127/6 111/129/6 107/139/6
f 93/113/2 102/123/2 109/136/2 105/132/2
f 107/139/3 108/138/3 120/140/3 119/141/3
f 104/126/2 96/118/2 108/138/2 112/128/2
f 109/136/2 102/123/2 121/142/2 125/143/2
f 114/144/1 113/134/1 117/133/1 118/145/1
f 116/146/1 115/147/1 119/141/1 120/140/1
f 94/114/3 93/113/3 113/134/3 114/144/3
f 108/138/2 96/118/2 116/146/2 120/140/2
f 95/117/6 107/139/6 119/141/6 115/147/6
f 105/132/5 106/135/5 118/145/5 117/133/5
f 106/135/6 94/114/6 114/144/6 118/145/6
f 96/118/5 95/117/5 115/147/5 116/146/5
f 123/148/4 124/149/4 128/131/4 127/130/4
f 121/142/4 122/150/4 126/151/4 125/143/4
f 103/122/6 110/137/6 126/151/6 122/150/6
f 104/126/2 112/128/2 128/131/2 124/149/2
f 98/127/5 104/126/5 124/149/5 123/148/5
f 110/137/5 109/136/5 125/143/5 126/151/5
f 111/129/6 98/127/6 123/148/6 127/130/6
f 102/123/3 103/122/3 122/150/3 121/142/3
usemtl Screen
f 24/37/2 23/32/2 22/152/2 21/153/2
