# Blender v2.82 (sub 7) OBJ File: 'Door.blend'
# www.blender.org
mtllib Door.mtl
o Cube.001_Cube.002
v -0.750000 0.000000 0.000000
v 0.750000 0.000000 0.000000
v -0.750000 2.500000 0.000000
v 0.750000 2.500000 0.000000
v -0.750000 0.000000 0.129159
v 0.750000 0.000000 0.129159
v -0.750000 2.500000 0.129159
v 0.750000 2.500000 0.129159
v -0.750000 2.308635 0.000000
v -0.750000 0.191365 0.000000
v 0.750000 0.191365 0.000000
v 0.750000 2.308635 0.000000
v -0.750000 2.308635 0.129159
v -0.750000 0.191365 0.129159
v 0.750000 0.191365 0.129159
v 0.750000 2.308635 0.129159
v -0.556828 0.000000 0.000000
v 0.556828 0.000000 0.000000
v 0.556828 2.500000 0.000000
v -0.556828 2.500000 0.000000
v -0.556828 0.000000 0.129159
v 0.556828 0.000000 0.129159
v 0.556828 2.500000 0.129159
v -0.556828 2.500000 0.129159
v 0.556828 0.191365 0.129159
v -0.556828 0.191365 0.129159
v 0.556828 2.308635 0.129159
v -0.556828 2.308635 0.129159
v -0.556828 0.191365 0.000000
v 0.556828 0.191365 0.000000
v -0.556828 2.308635 0.000000
v 0.556828 2.308635 0.000000
v -0.048987 0.000000 0.000000
v 0.048987 0.000000 0.000000
v 0.048987 2.500000 0.000000
v -0.048987 2.500000 0.000000
v -0.048987 0.000000 0.129159
v 0.048987 0.000000 0.129159
v 0.048987 2.500000 0.129159
v -0.048987 2.500000 0.129159
v 0.048987 0.191365 0.129159
v -0.048987 0.191365 0.129159
v 0.048987 2.308635 0.129159
v -0.048987 2.308635 0.129159
v -0.048987 0.191365 0.000000
v 0.048987 0.191365 0.000000
v -0.048987 2.308635 0.000000
v 0.048987 2.308635 0.000000
v -0.750000 1.854995 0.000000
v -0.750000 1.812306 0.000000
v -0.750000 1.001204 0.000000
v -0.750000 0.958514 0.000000
v 0.750000 0.958514 0.000000
v 0.750000 1.001204 0.000000
v 0.750000 1.812306 0.000000
v 0.750000 1.854995 0.000000
v -0.750000 1.854995 0.129159
v -0.750000 1.812306 0.129159
v -0.750000 1.001204 0.129159
v -0.750000 0.958514 0.129159
v 0.750000 0.958514 0.129159
v 0.750000 1.001204 0.129159
v 0.750000 1.812306 0.129159
v 0.750000 1.854995 0.129159
v -0.556828 1.854995 0.000000
v -0.556828 1.812306 0.000000
v -0.556828 1.001204 0.000000
v -0.556828 0.958514 0.000000
v 0.556828 1.854995 0.000000
v 0.556828 1.812306 0.000000
v 0.556828 1.001204 0.000000
v 0.556828 0.958514 0.000000
v -0.556828 0.958514 0.129159
v -0.556828 1.001204 0.129159
v -0.556828 1.812306 0.129159
v -0.556828 1.854995 0.129159
v 0.556828 0.958514 0.129159
v 0.556828 1.001204 0.129159
v 0.556828 1.812306 0.129159
v 0.556828 1.854995 0.129159
v -0.048987 0.958514 0.129159
v -0.048987 1.001204 0.129159
v -0.048987 1.812306 0.129159
v -0.048987 1.854995 0.129159
v 0.048987 0.958514 0.129159
v 0.048987 1.001204 0.129159
v 0.048987 1.812306 0.129159
v 0.048987 1.854995 0.129159
v -0.048987 1.854995 0.000000
v -0.048987 1.812306 0.000000
v -0.048987 1.001204 0.000000
v -0.048987 0.958514 0.000000
v 0.048987 1.854995 0.000000
v 0.048987 1.812306 0.000000
v 0.048987 1.001204 0.000000
v 0.048987 0.958514 0.000000
v -0.067507 0.219342 0.116558
v -0.538308 0.219342 0.116558
v -0.067507 2.292092 0.116558
v -0.538308 2.292092 0.116558
v -0.538308 1.871539 0.116558
v 0.538308 1.871539 0.116558
v 0.538308 2.292092 0.116558
v 0.538308 0.219342 0.116558
v 0.067507 0.219342 0.116558
v 0.067507 2.292092 0.116558
v -0.067507 1.871539 0.116558
v 0.067507 1.871539 0.116558
v -0.538308 0.930537 0.116558
v -0.538308 1.030783 0.116558
v -0.538308 1.782726 0.116558
v 0.538308 0.930537 0.116558
v 0.538308 1.030783 0.116558
v 0.538308 1.782726 0.116558
v -0.067507 0.930537 0.116558
v -0.067507 1.030783 0.116558
v -0.067507 1.782726 0.116558
v 0.067507 0.930537 0.116558
v 0.067507 1.030783 0.116558
v 0.067507 1.782726 0.116558
v -0.163588 0.364483 0.142623
v -0.442227 0.364483 0.142623
v -0.163588 2.206265 0.142623
v -0.442227 2.206265 0.142623
v -0.442227 1.957365 0.142623
v 0.442227 1.957365 0.142623
v 0.442227 2.206265 0.142623
v 0.442227 0.364483 0.142623
v 0.163588 0.364483 0.142623
v 0.163588 2.206265 0.142623
v -0.163588 1.957365 0.142623
v 0.163588 1.957365 0.142623
v -0.442227 0.785396 0.142623
v -0.442227 1.184240 0.142623
v -0.442227 1.629270 0.142623
v 0.442227 0.785396 0.142623
v 0.442227 1.184240 0.142623
v 0.442227 1.629270 0.142623
v -0.163588 0.785396 0.142623
v -0.163588 1.184240 0.142623
v -0.163588 1.629270 0.142623
v 0.163588 0.785396 0.142623
v 0.163588 1.184240 0.142623
v 0.163588 1.629270 0.142623
v 0.714744 1.063388 0.129159
v 0.714744 1.182371 0.129159
v 0.592084 1.063388 0.129159
v 0.592084 1.182371 0.129159
v 0.714744 1.063388 0.178195
v 0.714744 1.182371 0.178195
v 0.592084 1.063388 0.178195
v 0.592084 1.182371 0.178195
v 0.714744 1.063388 0.238118
v 0.714744 1.182371 0.238118
v 0.592084 1.063388 0.238118
v 0.592084 1.182371 0.238118
v 0.688845 1.088511 0.259525
v 0.688845 1.157248 0.259525
v 0.617984 1.088511 0.259525
v 0.617984 1.157248 0.259525
v 0.684079 1.093133 0.178195
v 0.622749 1.093133 0.178195
v 0.684079 1.152625 0.178195
v 0.622749 1.152625 0.178195
v -0.750000 0.228010 0.000000
v 0.750000 0.228010 0.000000
v -0.750000 2.500000 0.000000
v 0.750000 2.500000 0.000000
v -0.750000 0.228010 0.129159
v 0.750000 0.228010 0.129159
v -0.750000 2.500000 0.129159
v 0.750000 2.500000 0.129159
v -0.989809 0.228010 0.000000
v 0.989809 0.228010 0.000000
v 0.989809 2.723633 0.000000
v -0.989809 0.228010 0.129159
v 0.989809 0.228010 0.129159
v 0.989809 2.723633 0.129159
v 0.750000 -0.000000 0.000000
v 0.750000 -0.000000 0.129159
v -0.750000 -0.000000 0.129159
v -0.750000 -0.000000 0.000000
v 0.989809 -0.000000 0.000000
v 0.989809 -0.000000 0.129159
v -0.989809 -0.000000 0.129159
v -0.989809 -0.000000 0.000000
v 1.045717 0.228010 0.000000
v 1.045717 0.228010 0.129159
v -1.045717 0.228010 0.129159
v -1.045717 0.228010 0.000000
v 1.045717 -0.000000 0.000000
v 1.045717 -0.000000 0.129159
v -1.045717 -0.000000 0.129159
v -1.045717 -0.000000 0.000000
v -0.750000 0.228010 0.173973
v -0.989809 0.228010 0.173973
v 0.989809 0.228010 0.173973
v 0.750000 0.228010 0.173973
v -0.750000 0.000000 0.173973
v -0.989809 0.000000 0.173973
v 0.989809 0.000000 0.173973
v 0.750000 0.000000 0.173973
v 1.045717 0.228010 0.173973
v 1.045717 0.000000 0.173973
v -1.045717 0.000000 0.173973
v -1.045717 0.228010 0.173973
v 0.750000 2.723630 0.000000
v 0.750000 2.723630 0.129159
v 0.989809 2.500000 0.000000
v 0.989809 2.500000 0.129159
v -0.989808 2.500000 0.000000
v -0.989808 2.500000 0.129159
v -0.749999 2.723633 0.000000
v -0.749999 2.723633 0.129159
v -0.989808 2.723630 0.000000
v -0.989808 2.723630 0.129159
v -0.749999 2.500000 0.000000
v -0.749999 2.500000 0.129159
v 0.989809 2.782541 0.129159
v 0.750000 2.782537 0.129159
v 0.989809 2.782541 0.000000
v 0.750000 2.782537 0.000000
v -0.749999 2.782541 0.129159
v -0.989808 2.782537 0.129159
v -0.749999 2.782541 0.000000
v -0.989808 2.782537 0.000000
v 0.989809 2.723633 0.000000
v 0.989809 2.723633 0.129159
v 0.989809 2.500000 0.000000
v 0.989809 2.500000 0.129159
v -0.989808 2.500000 0.000000
v -0.989808 2.500000 0.129159
v -0.989808 2.723630 0.129159
v -0.989808 2.723630 0.000000
v 0.989809 2.782541 0.000000
v 0.989809 2.782541 0.129159
v -0.989808 2.782537 0.000000
v -0.989808 2.782537 0.129159
v 1.049816 2.723633 0.000000
v 1.049816 2.723633 0.129159
v 1.049816 2.500000 0.000000
v 1.049816 2.500000 0.129159
v -1.049815 2.500000 0.000000
v -1.049815 2.500000 0.129159
v -1.049815 2.723630 0.129159
v -1.049815 2.723630 0.000000
v 1.049816 2.782541 0.000000
v 1.049816 2.782541 0.129159
v -1.049815 2.782537 0.000000
v -1.049815 2.782537 0.129159
v 0.989809 2.723633 0.173973
v 0.750000 2.723630 0.173973
v 0.750000 2.500000 0.173973
v 0.989809 2.500000 0.173973
v -0.749999 2.723633 0.173973
v -0.989808 2.723630 0.173973
v -0.989808 2.500000 0.173973
v -0.749999 2.500000 0.173973
v 0.989809 2.782541 0.173973
v 0.750000 2.782537 0.173973
v -0.749999 2.782541 0.173973
v -0.989808 2.782537 0.173973
v 0.989809 2.723633 0.173973
v 0.989809 2.500000 0.173973
v -0.989808 2.723630 0.173973
v -0.989808 2.500000 0.173973
v -1.049815 2.500000 0.173973
v -0.989808 2.782537 0.173973
v 0.989809 2.782541 0.173973
v 1.049816 2.723633 0.173973
v 1.049816 2.500000 0.173973
v -1.049815 2.723630 0.173973
v -1.049815 2.782537 0.173973
v 1.049816 2.782541 0.173973
vt 0.666667 0.466667
vt 0.666667 0.533333
vt 1.000000 0.533333
vt 1.000000 0.466667
vt 0.666667 0.466667
vt 1.000000 0.466667
vt 1.000000 0.466667
vt 0.666667 0.466667
vt 0.666667 0.466667
vt 1.000000 0.466667
vt 1.000000 0.533333
vt 1.000000 0.533333
vt 0.666667 0.533333
vt 0.666667 0.533333
vt 1.000000 0.533333
vt 0.666667 0.533333
vt 0.666667 0.533333
vt 1.000000 0.533333
vt 0.666667 0.466667
vt 1.000000 0.466667
vt 1.000000 1.000000
vt 1.000000 1.000000
vt 1.000000 0.000000
vt 1.000000 0.000000
vt 1.000000 1.000000
vt 0.000000 0.000000
vt 0.000000 0.000000
vt 1.000000 1.000000
vt 1.000000 1.000000
vt 1.000000 1.000000
vt 0.000000 1.000000
vt 0.000000 1.000000
vt 0.000000 0.000000
vt 0.000000 0.000000
vt 0.000000 0.000000
vt 0.000000 0.000000
vt 1.000000 0.000000
vt 1.000000 0.000000
vt 1.000000 1.000000
vt 1.000000 1.000000
vt 0.000000 0.000000
vt 0.000000 0.000000
vt 0.000000 0.000000
vt 0.000000 0.000000
vt 0.000000 0.000000
vt 1.000000 0.000000
vt 1.000000 0.000000
vt 1.000000 0.000000
vt 1.000000 0.000000
vt 1.000000 0.000000
vt 1.000000 0.000000
vt 0.000000 0.000000
vt 0.000000 0.000000
vt 0.000000 0.000000
vt 1.000000 0.000000
vt 1.000000 0.000000
vt 0.000000 0.000000
vt 1.000000 0.000000
vt 1.000000 0.000000
vt 0.000000 0.000000
vt 0.000000 0.000000
vt 0.000000 0.000000
vt 0.000000 0.000000
vt 1.000000 0.000000
vt 1.000000 0.000000
vt 1.000000 0.000000
vt 1.000000 0.000000
vt 0.000000 0.000000
vt 0.000000 0.000000
vt 0.000000 0.000000
vt 0.000000 0.000000
vt 0.000000 0.000000
vt 0.000000 0.000000
vt 0.000000 0.000000
vt 0.000000 0.000000
vt 1.000000 1.000000
vt 1.000000 1.000000
vt 1.000000 1.000000
vt 1.000000 1.000000
vt 1.000000 1.000000
vt 1.000000 1.000000
vt 1.000000 1.000000
vt 1.000000 1.000000
vt 1.000000 1.000000
vt 0.000000 0.000000
vt 1.000000 1.000000
vt 1.000000 1.000000
vt 1.000000 1.000000
vt 1.000000 1.000000
vt 0.000000 0.000000
vt 1.000000 1.000000
vt 1.000000 1.000000
vt 1.000000 1.000000
vt 1.000000 1.000000
vt 0.000000 0.000000
vt 0.000000 0.000000
vt 0.000000 0.000000
vt 0.000000 0.000000
vt 0.000000 0.000000
vt 0.000000 0.000000
vt 0.000000 0.000000
vt 1.000000 1.000000
vt 1.000000 1.000000
vt 1.000000 1.000000
vt 1.000000 1.000000
vt 1.000000 1.000000
vt 1.000000 1.000000
vt 1.000000 1.000000
vt 1.000000 1.000000
vt 0.000000 0.000000
vt 0.000000 0.000000
vt 1.000000 1.000000
vt 1.000000 1.000000
vt 1.000000 1.000000
vt 1.000000 1.000000
vt 1.000000 1.000000
vt 1.000000 1.000000
vt 0.000000 0.000000
vt 0.000000 0.000000
vt 1.000000 1.000000
vt 1.000000 1.000000
vt 1.000000 1.000000
vt 0.000000 0.000000
vt 1.000000 1.000000
vt 1.000000 1.000000
vt 0.000000 0.000000
vt 1.000000 1.000000
vt 1.000000 1.000000
vt 1.000000 1.000000
vt 1.000000 1.000000
vt 0.666667 0.666667
vt 0.666667 1.000000
vt 1.000000 1.000000
vt 1.000000 0.666667
vt 0.666667 0.666667
vt 1.000000 0.666667
vt 1.000000 1.000000
vt 0.666667 1.000000
vt 0.666667 0.000000
vt 1.000000 0.000000
vt 1.000000 0.000000
vt 0.666667 0.000000
vt 0.000000 0.333333
vt 0.000000 0.000000
vt 0.000000 0.000000
vt 0.000000 0.333333
vt 0.333333 1.000000
vt 0.000000 1.000000
vt 0.000000 1.000000
vt 0.333333 1.000000
vt 0.000000 0.666667
vt 0.000000 0.666667
vt 0.000000 0.400000
vt 0.000000 0.400000
vt 1.000000 0.333333
vt 1.000000 0.333333
vt 1.000000 0.600000
vt 1.000000 0.600000
vt 0.666667 0.333333
vt 0.666667 0.600000
vt 0.666667 0.333333
vt 0.666667 0.600000
vt 0.000000 0.600000
vt 0.333333 0.666667
vt 0.333333 0.600000
vt 0.555556 0.600000
vt 0.555556 0.666667
vt 0.333333 0.333333
vt 0.333333 0.000000
vt 0.555556 0.000000
vt 0.555556 0.333333
vt 0.000000 0.600000
vt 0.333333 0.600000
vt 0.333333 0.666667
vt 0.333333 0.333333
vt 0.444444 0.333333
vt 0.444444 0.333333
vt 0.333333 0.333333
vt 0.333333 0.000000
vt 0.555556 0.000000
vt 0.555555 0.333333
vt 0.444444 1.000000
vt 0.444444 1.000000
vt 0.555555 0.666667
vt 0.555555 1.000000
vt 0.555555 1.000000
vt 0.444444 0.666667
vt 0.444444 0.666667
vt 0.444444 0.000000
vt 0.444444 0.000000
vt 0.333333 0.533333
vt 0.333333 0.466667
vt 0.333333 0.466667
vt 0.333333 0.533333
vt 0.444444 0.600000
vt 0.555555 0.600000
vt 0.444444 0.333333
vt 0.444444 0.600000
vt 0.444444 0.400000
vt 0.555556 0.400000
vt 0.444444 0.466667
vt 0.555556 0.466667
vt 0.444444 0.533333
vt 0.555556 0.533333
vt 0.333333 0.400000
vt 0.333333 0.466667
vt 0.333333 0.533333
vt 0.555555 0.400000
vt 0.444444 0.400000
vt 0.555555 0.466667
vt 0.444444 0.466667
vt 0.555555 0.533333
vt 0.444444 0.533333
vt 0.444444 0.600000
vt 0.333333 0.600000
vt 0.333333 0.400000
vt 0.444444 0.533333
vt 0.444444 0.400000
vt 0.666667 0.400000
vt 0.666667 0.466667
vt 0.555555 0.600000
vt 0.555555 0.666667
vt 0.666667 0.533333
vt 0.000000 0.466667
vt 0.000000 0.533333
vt 0.666667 0.400000
vt 0.666667 0.466667
vt 0.666667 0.533333
vt 0.000000 0.466667
vt 0.000000 0.533333
vt 1.000000 0.400000
vt 1.000000 0.466667
vt 1.000000 0.533333
vt 1.000000 0.400000
vt 1.000000 0.466667
vt 1.000000 0.533333
vt 0.444444 0.600000
vt 0.333333 0.600000
vt 0.555555 0.333333
vt 0.666667 0.333333
vt 0.666667 0.333333
vt 0.555555 0.333333
vt 0.666667 0.466667
vt 0.666667 0.533333
vt 0.666667 0.533333
vt 0.666667 0.466667
vt 0.333333 0.533333
vt 0.444444 0.533333
vt 0.666667 0.600000
vt 0.666667 0.666667
vt 0.666667 0.666667
vt 0.666667 0.600000
vt 0.666667 0.400000
vt 0.666667 0.400000
vt 0.444444 0.466667
vt 0.555555 0.400000
vt 0.555555 0.466667
vt 0.333333 0.666667
vt 0.444444 0.666667
vt 0.555555 0.533333
vt 0.333333 0.400000
vt 0.555555 0.600000
vt 0.555555 0.666667
vt 0.444444 0.666667
vt 0.333333 0.666667
vt 0.333333 0.333333
vt 0.444444 0.333333
vt 0.444444 0.400000
vt 0.333333 0.400000
vt 0.333333 0.466667
vt 0.444444 0.466667
vt 0.555555 0.400000
vt 0.555555 0.466667
vt 0.555555 0.533333
vn 0.0000 0.0000 -1.0000
vn 0.0000 -1.0000 0.0000
vn 0.0000 0.6486 0.7612
vn 1.0000 0.0000 0.0000
vn 0.0000 1.0000 0.0000
vn -1.0000 0.0000 0.0000
vn 0.0000 0.0000 1.0000
vn -0.6371 0.0000 0.7708
vn 0.0000 -0.6486 0.7612
vn 0.6371 0.0000 0.7708
vn -0.8479 0.0000 0.5302
vn 0.0000 0.8550 0.5186
vn 0.8479 0.0000 0.5302
vn 0.0000 -0.8550 0.5186
vn 0.0000 0.4107 0.9118
vn 0.5625 0.0000 0.8268
vn 0.0000 0.6059 0.7955
vn 0.0000 -0.3919 0.9200
vn -0.5625 0.0000 0.8268
vn 0.0000 -0.2906 0.9568
vn 0.0000 -0.1768 0.9843
vn 0.2618 0.0000 0.9651
vn 0.0000 0.1675 0.9859
vn 0.0000 -0.4107 0.9118
vn 0.0000 0.3919 0.9200
vn 0.0000 -0.6059 0.7955
vn 0.0000 0.2906 0.9568
vn 0.0000 0.1768 0.9843
vn 0.0000 -0.1675 0.9859
vn -0.2618 0.0000 0.9651
usemtl Material
s off
f 147/1/1 148/2/1 146/3/1 145/4/1
f 151/5/2 149/6/2 153/7/2 155/8/2
f 162/9/1 161/10/1 149/6/1 151/5/1
f 161/10/1 163/11/1 150/12/1 149/6/1
f 163/11/1 164/13/1 152/14/1 150/12/1
f 164/13/1 162/9/1 151/5/1 152/14/1
f 154/15/3 156/16/3 160/17/3 158/18/3
f 149/6/4 150/12/4 154/15/4 153/7/4
f 150/12/5 152/14/5 156/16/5 154/15/5
f 152/14/6 151/5/6 155/8/6 156/16/6
f 159/19/7 157/20/7 158/18/7 160/17/7
f 156/16/8 155/8/8 159/19/8 160/17/8
f 155/8/9 153/7/9 157/20/9 159/19/9
f 153/7/10 154/15/10 158/18/10 157/20/10
f 148/2/11 147/1/11 162/9/11 164/13/11
f 146/3/12 148/2/12 164/13/12 163/11/12
f 145/4/13 146/3/13 163/11/13 161/10/13
f 147/1/14 145/4/14 161/10/14 162/9/14
f 209/21/4 210/22/4 177/23/4 174/24/4
f 217/25/1 165/26/1 173/27/1 211/28/1
f 168/29/2 172/30/2 171/31/2 167/32/2
f 214/33/4 213/34/4 225/35/4 223/36/4
f 174/24/5 177/23/5 188/37/5 187/38/5
f 208/39/5 207/40/5 213/34/5 214/33/5
f 165/26/4 169/41/4 181/42/4 182/43/4
f 182/43/2 181/42/2 185/44/2 186/45/2
f 180/46/2 179/47/2 183/48/2 184/49/2
f 166/50/1 174/24/1 183/48/1 179/47/1
f 173/27/1 165/26/1 182/43/1 186/45/1
f 170/51/6 166/50/6 179/47/6 180/46/6
f 169/41/5 176/52/5 196/53/5 195/54/5
f 177/23/5 170/51/5 198/55/5 197/56/5
f 181/42/4 169/41/4 195/54/4 199/57/4
f 187/38/4 188/37/4 192/58/4 191/59/4
f 189/60/6 190/61/6 194/62/6 193/63/6
f 188/37/5 177/23/5 197/56/5 203/64/5
f 173/27/1 186/45/1 194/62/1 190/61/1
f 184/49/2 183/48/2 191/59/2 192/58/2
f 183/48/1 174/24/1 187/38/1 191/59/1
f 176/52/5 173/27/5 190/61/5 189/60/5
f 186/45/2 185/44/2 193/63/2 194/62/2
f 197/56/7 201/65/7 204/66/7 203/64/7
f 197/56/7 198/55/7 202/67/7 201/65/7
f 195/54/7 196/53/7 200/68/7 199/57/7
f 200/68/7 196/53/7 206/69/7 205/70/7
f 189/60/6 193/63/6 205/70/6 206/69/6
f 192/58/4 188/37/4 203/64/4 204/66/4
f 176/52/5 189/60/5 206/69/5 196/53/5
f 180/46/2 184/49/2 201/65/2 202/67/2
f 184/49/2 192/58/2 204/66/2 201/65/2
f 170/51/6 180/46/6 202/67/6 198/55/6
f 185/44/2 181/42/2 199/57/2 200/68/2
f 193/63/2 185/44/2 200/68/2 205/70/2
f 168/29/1 209/21/1 174/24/1 166/50/1
f 207/40/1 175/71/1 209/21/1 168/29/1
f 178/72/4 219/73/4 259/74/4 251/75/4
f 224/76/7 226/77/7 237/78/7 238/79/7
f 177/23/7 210/22/7 172/30/7 170/51/7
f 212/80/7 216/81/7 233/82/7 232/83/7
f 178/72/7 210/22/7 230/84/7 228/85/7
f 215/86/1 213/34/1 217/25/1 211/28/1
f 219/73/5 220/87/5 260/88/5 259/74/5
f 168/29/1 217/25/1 213/34/1 207/40/1
f 217/25/4 218/89/4 169/41/4 165/26/4
f 211/28/6 173/27/6 176/52/6 212/80/6
f 169/41/7 218/89/7 212/80/7 176/52/7
f 168/29/6 166/50/6 170/51/6 172/30/6
f 172/30/7 208/39/7 214/33/7 218/89/7
f 220/87/5 219/73/5 221/90/5 222/91/5
f 224/76/5 223/36/5 225/35/5 226/77/5
f 175/71/1 207/40/1 222/91/1 221/90/1
f 244/92/2 232/83/2 266/93/2 267/94/2
f 207/40/6 208/39/6 220/87/6 222/91/6
f 175/71/7 221/90/7 235/95/7 227/96/7
f 213/34/1 215/86/1 226/77/1 225/35/1
f 236/97/6 228/85/6 263/98/6 269/99/6
f 235/95/5 236/97/5 248/100/5 247/101/5
f 230/84/2 229/102/2 241/103/2 242/104/2
f 237/78/1 234/105/1 246/106/1 249/107/1
f 231/108/2 232/83/2 244/92/2 243/109/2
f 216/81/7 224/76/7 238/79/7 233/82/7
f 219/73/7 178/72/7 228/85/7 236/97/7
f 215/86/7 211/28/7 231/108/7 234/105/7
f 209/21/7 175/71/7 227/96/7 229/102/7
f 221/90/7 219/73/7 236/97/7 235/95/7
f 226/77/7 215/86/7 234/105/7 237/78/7
f 210/22/7 209/21/7 229/102/7 230/84/7
f 211/28/7 212/80/7 232/83/7 231/108/7
f 240/110/4 242/104/4 241/103/4 239/111/4
f 246/106/6 245/112/6 250/113/6 249/107/6
f 244/92/6 245/112/6 246/106/6 243/109/6
f 240/110/4 239/111/4 247/101/4 248/100/4
f 220/87/6 208/39/6 252/114/6 260/88/6
f 227/96/1 235/95/1 247/101/1 239/111/1
f 229/102/1 227/96/1 239/111/1 241/103/1
f 238/79/5 237/78/5 249/107/5 250/113/5
f 172/30/2 210/22/2 254/115/2 253/116/2
f 232/83/4 233/82/4 265/117/4 266/93/4
f 248/100/5 236/97/5 269/99/5 274/118/5
f 234/105/1 231/108/1 243/109/1 246/106/1
f 251/75/7 252/114/7 253/116/7 254/115/7
f 255/119/7 256/120/7 257/121/7 258/122/7
f 256/120/7 255/119/7 261/123/7 262/124/7
f 252/114/7 251/75/7 259/74/7 260/88/7
f 266/93/7 265/117/7 272/125/7 267/94/7
f 269/99/7 263/98/7 270/126/7 274/118/7
f 263/98/7 264/127/7 271/128/7 270/126/7
f 265/117/7 268/129/7 273/130/7 272/125/7
f 218/89/4 214/33/4 255/119/4 258/122/4
f 245/112/6 244/92/6 267/94/6 272/125/6
f 224/76/6 216/81/6 256/120/6 262/124/6
f 216/81/6 212/80/6 257/121/6 256/120/6
f 240/110/4 248/100/4 274/118/4 270/126/4
f 210/22/4 178/72/4 251/75/4 254/115/4
f 238/79/5 250/113/5 273/130/5 268/129/5
f 208/39/6 172/30/6 253/116/6 252/114/6
f 214/33/4 223/36/4 261/123/4 255/119/4
f 233/82/4 238/79/4 268/129/4 265/117/4
f 223/36/5 224/76/5 262/124/5 261/123/5
f 228/85/6 230/84/6 264/127/6 263/98/6
f 230/84/2 242/104/2 271/128/2 264/127/2
f 250/113/6 245/112/6 272/125/6 273/130/6
f 212/80/2 218/89/2 258/122/2 257/121/2
f 242/104/4 240/110/4 270/126/4 271/128/4
usemtl Material.001
f 32/131/1 19/132/1 4/133/1 12/134/1
f 27/135/7 16/136/7 8/137/7 23/138/7
f 18/139/2 2/140/2 6/141/2 22/142/2
f 12/134/4 4/133/4 8/137/4 16/136/4
f 10/143/6 1/144/6 5/145/6 14/146/6
f 20/147/5 3/148/5 7/149/5 24/150/5
f 3/148/6 9/151/6 13/152/6 7/149/6
f 52/153/6 10/143/6 14/146/6 60/154/6
f 2/140/4 11/155/4 15/156/4 6/141/4
f 56/157/4 12/134/4 16/136/4 64/158/4
f 22/142/7 6/141/7 15/156/7 25/159/7
f 80/160/7 64/158/7 16/136/7 27/135/7
f 18/139/1 30/161/1 11/155/1 2/140/1
f 69/162/1 32/131/1 12/134/1 56/157/1
f 49/163/1 9/151/1 31/164/1 65/165/1
f 93/166/1 48/167/1 32/131/1 69/162/1
f 1/144/1 10/143/1 29/168/1 17/169/1
f 34/170/1 46/171/1 30/161/1 18/139/1
f 57/172/7 76/173/7 28/174/7 13/152/7
f 26/175/15 42/176/15 97/177/15 98/178/15
f 5/145/7 21/179/7 26/175/7 14/146/7
f 38/180/7 22/142/7 25/159/7 41/181/7
f 4/133/5 19/132/5 23/138/5 8/137/5
f 36/182/5 20/147/5 24/150/5 40/183/5
f 1/144/2 17/169/2 21/179/2 5/145/2
f 34/170/2 18/139/2 22/142/2 38/180/2
f 13/152/7 28/174/7 24/150/7 7/149/7
f 43/184/7 27/135/7 23/138/7 39/185/7
f 9/151/1 3/148/1 20/147/1 31/164/1
f 48/167/1 35/186/1 19/132/1 32/131/1
f 31/164/1 20/147/1 36/182/1 47/187/1
f 47/187/1 36/182/1 35/186/1 48/167/1
f 28/174/7 44/188/7 40/183/7 24/150/7
f 44/188/7 43/184/7 39/185/7 40/183/7
f 17/169/2 33/189/2 37/190/2 21/179/2
f 33/189/2 34/170/2 38/180/2 37/190/2
f 19/132/5 35/186/5 39/185/5 23/138/5
f 35/186/5 36/182/5 40/183/5 39/185/5
f 21/179/7 37/190/7 42/176/7 26/175/7
f 37/190/7 38/180/7 41/181/7 42/176/7
f 75/191/16 74/192/16 110/193/16 111/194/16
f 84/195/7 88/196/7 43/184/7 44/188/7
f 17/169/1 29/168/1 45/197/1 33/189/1
f 33/189/1 45/197/1 46/171/1 34/170/1
f 65/165/1 31/164/1 47/187/1 89/198/1
f 89/198/1 47/187/1 48/167/1 93/166/1
f 45/197/1 92/199/1 96/200/1 46/171/1
f 92/199/1 91/201/1 95/202/1 96/200/1
f 91/201/1 90/203/1 94/204/1 95/202/1
f 90/203/1 89/198/1 93/166/1 94/204/1
f 29/168/1 68/205/1 92/199/1 45/197/1
f 68/205/1 67/206/1 91/201/1 92/199/1
f 67/206/1 66/207/1 90/203/1 91/201/1
f 66/207/1 65/165/1 89/198/1 90/203/1
f 42/176/7 41/181/7 85/208/7 81/209/7
f 81/209/7 85/208/7 86/210/7 82/211/7
f 82/211/7 86/210/7 87/212/7 83/213/7
f 83/213/7 87/212/7 88/196/7 84/195/7
f 76/173/17 84/195/17 107/214/17 101/215/17
f 73/216/7 81/209/7 82/211/7 74/192/7
f 83/213/18 75/191/18 111/194/18 117/217/18
f 75/191/7 83/213/7 84/195/7 76/173/7
f 42/176/19 81/209/19 115/218/19 97/177/19
f 85/208/7 77/219/7 78/220/7 86/210/7
f 43/184/16 88/196/16 108/221/16 106/222/16
f 87/212/7 79/223/7 80/160/7 88/196/7
f 14/146/7 26/175/7 73/216/7 60/154/7
f 60/154/7 73/216/7 74/192/7 59/224/7
f 59/224/7 74/192/7 75/191/7 58/225/7
f 58/225/7 75/191/7 76/173/7 57/172/7
f 46/171/1 96/200/1 72/226/1 30/161/1
f 96/200/1 95/202/1 71/227/1 72/226/1
f 95/202/1 94/204/1 70/228/1 71/227/1
f 94/204/1 93/166/1 69/162/1 70/228/1
f 10/143/1 52/153/1 68/205/1 29/168/1
f 52/153/1 51/229/1 67/206/1 68/205/1
f 51/229/1 50/230/1 66/207/1 67/206/1
f 50/230/1 49/163/1 65/165/1 66/207/1
f 30/161/1 72/226/1 53/231/1 11/155/1
f 72/226/1 71/227/1 54/232/1 53/231/1
f 71/227/1 70/228/1 55/233/1 54/232/1
f 70/228/1 69/162/1 56/157/1 55/233/1
f 25/159/7 15/156/7 61/234/7 77/219/7
f 77/219/7 61/234/7 62/235/7 78/220/7
f 78/220/7 62/235/7 63/236/7 79/223/7
f 79/223/7 63/236/7 64/158/7 80/160/7
f 11/155/4 53/231/4 61/234/4 15/156/4
f 53/231/4 54/232/4 62/235/4 61/234/4
f 54/232/4 55/233/4 63/236/4 62/235/4
f 55/233/4 56/157/4 64/158/4 63/236/4
f 9/151/6 49/163/6 57/172/6 13/152/6
f 49/163/6 50/230/6 58/225/6 57/172/6
f 50/230/6 51/229/6 59/224/6 58/225/6
f 51/229/6 52/153/6 60/154/6 59/224/6
f 101/215/20 107/214/20 131/237/20 125/238/20
f 105/239/21 104/240/21 128/241/21 129/242/21
f 113/243/22 114/244/22 138/245/22 137/246/22
f 117/217/23 111/194/23 135/247/23 141/248/23
f 102/249/22 103/250/22 127/251/22 126/252/22
f 104/240/22 112/253/22 136/254/22 128/241/22
f 82/211/19 83/213/19 117/217/19 116/255/19
f 77/219/24 85/208/24 118/256/24 112/253/24
f 41/181/15 25/159/15 104/240/15 105/239/15
f 86/210/25 78/220/25 113/243/25 119/257/25
f 25/159/19 77/219/19 112/253/19 104/240/19
f 44/188/26 28/174/26 100/258/26 99/259/26
f 85/208/16 41/181/16 105/239/16 118/256/16
f 79/223/18 87/212/18 120/260/18 114/244/18
f 27/135/26 43/184/26 106/222/26 103/250/26
f 88/196/17 80/160/17 102/249/17 108/221/17
f 78/220/19 79/223/19 114/244/19 113/243/19
f 28/174/16 76/173/16 101/215/16 100/258/16
f 81/209/24 73/216/24 109/261/24 115/218/24
f 87/212/16 86/210/16 119/257/16 120/260/16
f 80/160/19 27/135/19 103/250/19 102/249/19
f 84/195/19 44/188/19 99/259/19 107/214/19
f 74/192/25 82/211/25 116/255/25 110/193/25
f 73/216/16 26/175/16 98/178/16 109/261/16
f 132/262/7 126/252/7 127/251/7 130/263/7
f 125/238/7 131/237/7 123/264/7 124/265/7
f 122/266/7 121/267/7 139/268/7 133/269/7
f 134/270/7 140/271/7 141/248/7 135/247/7
f 129/242/7 128/241/7 136/254/7 142/272/7
f 143/273/7 137/246/7 138/245/7 144/274/7
f 97/177/22 115/218/22 139/268/22 121/267/22
f 103/250/27 106/222/27 130/263/27 127/251/27
f 112/253/28 118/256/28 142/272/28 136/254/28
f 116/255/22 117/217/22 141/248/22 140/271/22
f 107/214/22 99/259/22 123/264/22 131/237/22
f 119/257/29 113/243/29 137/246/29 143/273/29
f 118/256/30 105/239/30 129/242/30 142/272/30
f 106/222/30 108/221/30 132/262/30 130/263/30
f 114/244/23 120/260/23 144/274/23 138/245/23
f 98/178/21 97/177/21 121/267/21 122/266/21
f 120/260/30 119/257/30 143/273/30 144/274/30
f 109/261/30 98/178/30 122/266/30 133/269/30
f 108/221/20 102/249/20 126/252/20 132/262/20
f 99/259/27 100/258/27 124/265/27 123/264/27
f 115/218/28 109/261/28 133/269/28 139/268/28
f 111/194/30 110/193/30 134/270/30 135/247/30
f 100/258/30 101/215/30 125/238/30 124/265/30
f 110/193/29 116/255/29 140/271/29 134/270/29
