{
    "MonoBehaviour": {
        "m_Enabled": true,
        "m_EditorHideFlags": 0,
        "m_Name": "",
        "m_EditorClassIdentifier": "Unity.Formats.Fbx.Editor:UnityEditor.Formats.Fbx.Exporter:ExportSettings",
        "ExportOutsideProject": false,
        "Verbose": false,
        "launchAfterInstallation": true,
        "HideSendToUnityMenu": true,
        "BakeAnimation": true,
        "showConvertToPrefabDialog": true,
        "integrationSavePath": "D:\\Nette\\ART\\COLLABS\\LDSJam\\lsdjame-repository\\LSDjam Project\\LSDjam Unity",
        "selectedDCCApp": 0,
        "prefabSavePaths": [
            "."
        ],
        "fbxSavePaths": [
            "D:/Nette/ART/COLLABS/LDSJam/lsdjame-repository/LSDjam Project/Assets/UnderwaterBasement/Blocking",
            "."
        ],
        "selectedFbxPath": 1,
        "selectedPrefabPath": 0,
        "dccOptionNames": [],
        "dccOptionPaths": [],
        "exportModelSettingsSerialize": {
            "exportFormat": 1,
            "animatedSkinnedMesh": false,
            "mayaCompatibleNaming": true,
            "include": 0,
            "lodLevel": 0,
            "objectPosition": 0,
            "exportUnrendered": false
        },
        "convertToPrefabSettingsSerialize": {
            "exportFormat": 0,
            "animatedSkinnedMesh": false,
            "mayaCompatibleNaming": true
        }
    }
}