# Blender v2.82 (sub 7) OBJ File: 'Building3b.blend'
# www.blender.org
mtllib Building3b.mtl
o Cube.001
v 6.000000 3.000000 2.999999
v 6.000000 3.000000 -3.000001
v 0.000000 3.000000 -2.999999
v 0.000000 -0.000000 -2.999999
v 0.000000 -0.000000 3.000001
v 0.000000 3.000000 3.000001
v 0.000000 0.400391 -2.999999
v 0.000000 0.400391 3.000001
v 0.000000 2.500000 3.000001
v 0.000000 2.500000 -2.999999
v 5.999998 2.500000 -10.000001
v 5.999998 3.000000 -10.000001
v -0.000002 3.000000 -9.999999
v -0.000002 2.500000 -9.999999
v -0.000002 0.400391 -9.999999
v 5.999998 -0.000000 -10.000001
v 5.999998 0.400391 -10.000001
v -0.000002 -0.000000 -9.999999
v 6.000002 -0.000000 9.999999
v 0.000002 -0.000000 10.000001
v 6.000002 3.000000 9.999999
v 0.000002 3.000000 10.000001
v 6.000002 2.500000 9.999999
v 0.000002 2.500000 10.000001
v 6.000002 0.400391 9.999999
v 0.000002 0.400391 10.000001
v -0.051785 0.400391 -2.999999
v -0.051785 0.400391 3.000001
v -0.051785 -0.000000 3.000001
v -0.051788 0.400391 -9.999999
v -0.051785 -0.000000 -2.999999
v -0.051788 -0.000000 -9.999999
v -0.051783 -0.000000 10.000001
v -0.051783 0.400391 10.000001
vt 0.000000 0.000000
vt 0.000000 0.000000
vt 0.000000 0.000000
vt 0.000000 0.000000
vt 0.000000 0.000000
vt 0.000000 0.000000
vt 0.000000 0.000000
vt 0.000000 0.000000
vt 0.541667 0.000000
vt 0.000000 0.000000
vt 0.541667 0.000000
vt 0.000000 0.000000
vt 0.000000 0.000000
vt 0.000000 0.000000
vt 0.000000 0.000000
vt 0.000000 0.000000
vt 0.000000 0.000000
vt 0.000000 0.000000
vt 0.000000 0.000000
vt 0.000000 0.000000
vt 0.000000 0.000000
vt 0.541667 0.000000
vt 0.000000 0.000000
vt 0.458333 0.000000
vt 0.471680 0.000000
vt 0.000000 0.000000
vt 0.000000 0.000000
vt 0.000000 0.000000
vt 0.000000 0.000000
vt 0.000000 0.000000
vt 0.000000 0.000000
vt 0.000000 0.000000
vt 0.000000 0.000000
vt 0.000000 0.000000
vt 0.000000 0.000000
vn 0.0000 0.0000 -1.0000
vn 0.0000 1.0000 0.0000
vn 0.0000 0.0000 1.0000
vn 0.0000 -1.0000 0.0000
vn -1.0000 0.0000 0.0000
usemtl Material
s off
f 15/1/1 18/2/1 32/3/1 30/4/1
f 6/5/2 1/6/2 2/7/2 3/8/2
f 1/9/2 6/5/2 22/10/2 21/11/2
f 11/12/1 14/13/1 13/14/1 12/15/1
f 14/13/1 11/12/1 17/16/1 15/1/1
f 17/16/1 16/17/1 18/2/1 15/1/1
f 3/8/2 2/7/2 12/15/2 13/14/2
f 20/18/3 26/19/3 34/20/3 33/21/3
f 23/22/3 21/11/3 22/10/3 24/23/3
f 19/24/3 25/25/3 26/19/3 20/18/3
f 25/25/3 23/22/3 24/23/3 26/19/3
f 18/2/4 4/26/4 31/27/4 32/3/4
f 27/28/5 31/27/5 29/29/5 28/30/5
f 31/27/5 27/28/5 30/4/5 32/3/5
f 28/30/5 29/29/5 33/21/5 34/20/5
f 5/31/4 20/18/4 33/21/4 29/29/4
f 4/26/4 5/31/4 29/29/4 31/27/4
f 8/32/2 7/33/2 27/28/2 28/30/2
f 7/33/2 15/1/2 30/4/2 27/28/2
f 26/19/2 8/32/2 28/30/2 34/20/2
usemtl Material.001
f 10/34/5 9/35/5 6/5/5 3/8/5
f 6/5/5 9/35/5 24/23/5 22/10/5
f 7/33/5 8/32/5 9/35/5 10/34/5
f 7/33/5 10/34/5 14/13/5 15/1/5
f 10/34/5 3/8/5 13/14/5 14/13/5
f 9/35/5 8/32/5 26/19/5 24/23/5
