# Blender v2.82 (sub 7) OBJ File: 'car.blend'
# www.blender.org
mtllib car.mtl
o Cube.001
v -0.916955 1.164568 -1.771090
v -0.916955 0.379918 -1.807316
v -0.916955 0.379918 1.799260
v -0.916955 1.087301 1.763034
v -0.916955 0.543310 -1.896553
v -0.916955 0.543309 1.888497
v -0.916955 1.009174 1.888497
v -0.916955 1.009174 -1.896553
v 0.916955 1.009174 1.888497
v 0.916955 1.087301 1.763034
v 0.916955 1.164568 -1.771090
v 0.916955 0.543310 -1.896553
v 0.916955 0.543309 1.888497
v 0.916955 1.009174 -1.896553
v 0.916955 0.379918 1.799260
v 0.916955 0.379918 -1.807316
v -0.916955 1.164568 -1.333411
v -0.916955 1.466961 -0.798147
v -0.916955 1.466961 0.302960
v -0.916955 1.087301 0.991408
v -1.000000 0.524197 -1.353138
v -1.000000 0.524197 -0.812008
v -1.000000 0.524197 0.504653
v -1.000000 0.524197 0.980257
v -0.916846 0.936850 1.110478
v -1.000000 1.033018 0.365731
v -1.000000 1.033018 -0.880526
v -0.916846 0.936850 -1.463389
v -0.916955 0.176722 -1.427798
v -0.916955 0.176722 -0.624417
v -0.916955 0.176722 0.419818
v -0.916955 0.176722 1.167451
v 0.916955 1.164568 -1.333411
v 0.916955 1.466961 -0.798147
v 0.916955 1.466961 0.302960
v 0.916955 1.087301 0.991408
v 1.000000 0.524197 -1.353138
v 1.000000 0.524197 -0.812008
v 1.000000 0.524197 0.504653
v 1.000000 0.524197 0.980257
v 0.916846 0.936850 1.110478
v 1.000000 1.033018 0.365731
v 1.000000 1.033018 -0.880526
v 0.916846 0.936850 -1.463389
v 0.916955 0.176722 -1.427798
v 0.916955 0.176722 -0.624417
v 0.916955 0.176722 0.419818
v 0.916955 0.176722 1.167451
v -0.666598 0.345739 1.905695
v 0.666598 0.345739 1.905695
v 0.666598 0.345739 -1.905695
v -0.666598 0.345739 -1.905695
v 0.666598 0.524197 -2.000000
v -0.666598 0.524197 -2.000000
v -0.666598 1.033018 2.000000
v 0.666598 1.033018 2.000000
v 0.666598 0.524197 2.000000
v -0.666598 0.524197 2.000000
v -0.666598 1.202741 -1.867412
v 0.666598 1.202741 -1.867412
v 0.666598 1.118349 1.867412
v -0.666598 1.118349 1.867412
v -0.666598 1.033018 -2.000000
v 0.666598 1.033018 -2.000000
v 0.666598 1.118349 1.051966
v -0.666598 1.118349 1.051966
v 0.666598 1.533018 0.324421
v -0.666598 1.533018 0.324421
v 0.666598 1.533018 -0.839216
v -0.666598 1.533018 -0.839216
v 0.666598 1.202741 -1.404877
v -0.666598 1.202741 -1.404877
v 0.666598 0.123806 -1.504625
v -0.666598 0.123806 -1.504625
v 0.666598 0.123806 -0.655621
v -0.666598 0.123806 -0.655621
v 0.666598 0.123806 0.455585
v -0.666598 0.123806 0.455585
v 0.666598 0.123806 1.238006
v -0.666598 0.123806 1.238006
v -0.955315 1.414718 -0.746380
v -0.955315 1.414718 0.250263
v -1.013327 1.085261 0.307079
v -1.013327 1.085261 -0.820943
v 0.955315 1.414718 -0.746380
v 0.955315 1.414718 0.250263
v 1.013327 1.085261 0.307079
v 1.013327 1.085261 -0.820943
v -0.860546 1.443687 0.354234
v -0.860546 1.117400 0.945899
v 0.860546 1.443687 0.354234
v 0.860546 1.117400 0.945899
v -0.625591 1.144084 0.997943
v -0.625591 1.500458 0.372679
v 0.625591 1.144084 0.997943
v 0.625591 1.500458 0.372679
v -0.784346 1.190202 -1.298775
v -0.784346 1.448864 -0.840920
v 0.784346 1.190202 -1.298775
v 0.784346 1.448864 -0.840920
v -0.570195 1.505367 -0.876050
v -0.570195 1.222855 -1.359906
v 0.570195 1.505367 -0.876050
v 0.570195 1.222855 -1.359906
vt 0.000000 0.000000
vt 0.000000 0.000000
vt 0.000000 0.000000
vt 0.000000 0.000000
vt 0.000000 0.000000
vt 0.000000 0.000000
vt 0.000000 0.000000
vt 0.000000 0.000000
vt 0.000000 0.000000
vt 0.000000 0.000000
vt 0.000000 0.000000
vt 0.000000 0.000000
vt 0.000000 0.000000
vt 0.000000 0.000000
vt 0.000000 0.000000
vt 0.000000 0.000000
vt 0.000000 0.000000
vt 0.000000 0.000000
vt 0.000000 0.000000
vt 0.000000 0.000000
vt 0.000000 0.000000
vt 0.000000 0.000000
vt 0.000000 0.000000
vt 0.000000 0.000000
vt 0.000000 0.000000
vt 0.000000 0.000000
vt 0.000000 0.000000
vt 0.000000 0.000000
vt 0.000000 0.000000
vt 0.000000 0.000000
vt 0.000000 0.000000
vt 0.000000 0.000000
vt 0.000000 0.000000
vt 0.000000 0.000000
vt 0.000000 0.000000
vt 0.000000 0.000000
vt 0.000000 0.000000
vt 0.000000 0.000000
vt 0.000000 0.000000
vt 0.000000 0.000000
vt 0.000000 0.000000
vt 0.000000 0.000000
vt 0.000000 0.000000
vt 0.000000 0.000000
vt 0.000000 0.000000
vt 0.000000 0.000000
vt 0.000000 0.000000
vt 0.000000 0.000000
vt 0.000000 0.000000
vt 0.000000 0.000000
vt 0.000000 0.000000
vt 0.000000 0.000000
vt 0.000000 0.000000
vt 0.000000 0.000000
vt 0.000000 0.000000
vt 0.000000 0.000000
vt 0.000000 0.000000
vt 0.000000 0.000000
vt 0.000000 0.000000
vt 0.000000 0.000000
vt 0.000000 0.000000
vt 0.000000 0.000000
vt 0.000000 0.000000
vt 0.000000 0.000000
vt 0.000000 0.000000
vt 0.000000 0.000000
vt 0.000000 0.000000
vt 0.000000 0.000000
vt 0.000000 0.000000
vt 0.000000 0.000000
vt 0.000000 0.000000
vt 0.000000 0.000000
vt 0.000000 0.000000
vt 0.000000 0.000000
vt 0.000000 0.000000
vt 0.000000 0.000000
vt 0.000000 0.000000
vt 0.000000 0.000000
vt 0.000000 0.000000
vt 0.000000 0.000000
vt 0.000000 0.000000
vt 0.000000 0.000000
vt 0.000000 0.000000
vt 0.000000 0.000000
vt 0.000000 0.000000
vt 0.000000 0.000000
vt 0.000000 0.000000
vt 0.000000 0.000000
vt 0.000000 0.000000
vt 0.000000 0.000000
vt 0.000000 0.000000
vt 0.000000 0.000000
vt 0.000000 0.000000
vt 0.000000 0.000000
vt 0.000000 0.000000
vt 0.000000 0.000000
vt 0.000000 0.000000
vt 0.000000 0.000000
vt 0.000000 0.000000
vt 0.000000 0.000000
vt 0.000000 0.000000
vt 0.000000 0.000000
vt 0.000000 0.000000
vt 0.000000 0.000000
vn 0.4068 0.0000 0.9135
vn 0.3819 0.0000 -0.9242
vn -0.3819 0.0000 -0.9242
vn -0.4068 0.0000 0.9135
vn 0.2068 -0.9784 0.0000
vn 0.9726 -0.2324 0.0000
vn -0.9726 -0.2324 0.0000
vn -0.2068 -0.9784 0.0000
vn 0.9848 0.1734 0.0000
vn -0.9848 0.1734 0.0000
vn 0.2226 0.8503 0.4770
vn -0.2226 0.8503 0.4770
vn 0.0000 0.8688 0.4952
vn 0.2807 0.8322 -0.4782
vn -0.2807 0.8322 -0.4782
vn 0.0000 0.8636 -0.5042
vn -1.0000 -0.0005 -0.0000
vn -0.9865 -0.1461 0.0743
vn -0.9952 0.0876 0.0442
vn 1.0000 -0.0005 -0.0000
vn 0.9865 -0.1461 0.0743
vn 0.9952 0.0876 0.0442
vn 0.2654 -0.9164 0.2998
vn 0.3758 -0.4384 -0.8165
vn 0.1507 0.9886 0.0000
vn 0.3629 0.5793 -0.7299
vn 0.3980 -0.4340 0.8083
vn 0.3076 0.8038 0.5092
vn 0.1231 0.9924 0.0000
vn -0.1875 0.9235 0.3346
vn 0.2551 0.9669 0.0000
vn -0.2422 0.3572 -0.9021
vn 0.3049 -0.8364 -0.4555
vn 0.9935 0.0844 -0.0765
vn 0.9940 0.0742 -0.0799
vn 1.0000 0.0000 0.0000
vn 0.9931 0.0903 0.0748
vn 0.9784 -0.1627 -0.1272
vn 1.0000 -0.0003 0.0001
vn 0.9775 0.1647 -0.1314
vn 0.8060 0.5919 0.0000
vn 0.9780 0.1745 0.1147
vn -0.9935 0.0844 -0.0765
vn -0.9940 0.0742 -0.0799
vn -1.0000 0.0000 0.0000
vn -0.9931 0.0903 0.0748
vn -0.9784 -0.1627 -0.1272
vn -1.0000 -0.0003 0.0001
vn -0.9775 0.1647 -0.1314
vn -0.8833 0.2274 0.4100
vn -0.9780 0.1745 0.1147
vn 0.0000 -1.0000 0.0000
vn -0.3049 -0.8364 -0.4555
vn 0.0000 -0.8750 -0.4842
vn 0.2422 0.3572 -0.9021
vn 0.1708 0.9826 -0.0734
vn -0.2551 0.9669 0.0000
vn 0.0000 1.0000 0.0000
vn 0.1875 0.9235 0.3346
vn 0.2374 0.7295 0.6415
vn -0.1231 0.9924 0.0000
vn -0.3076 0.8038 0.5092
vn 0.0000 0.8409 0.5412
vn -0.3980 -0.4340 0.8083
vn 0.0000 -0.4672 0.8841
vn 0.0000 0.0000 -1.0000
vn -0.3629 0.5793 -0.7299
vn 0.0000 0.6156 -0.7880
vn -0.1507 0.9886 0.0000
vn 0.0000 0.0000 1.0000
vn -0.3758 -0.4384 -0.8165
vn 0.0000 -0.4672 -0.8841
vn -0.2654 -0.9164 0.2998
vn 0.0000 -0.9490 0.3154
vn 0.8791 0.2463 -0.4081
vn -0.8060 0.5919 0.0000
vn -0.8791 0.2463 -0.4081
vn 0.8833 0.2274 0.4100
vn 0.9690 -0.2472 0.0000
vn -0.9690 -0.2472 0.0000
vn 0.0774 0.8730 0.4815
vn 0.0000 0.8290 0.5593
vn 0.0000 0.9028 0.4301
vn -0.0774 0.8730 0.4815
vn -0.2374 0.7295 0.6415
vn 0.0000 0.9129 -0.4083
vn 0.0000 0.7997 -0.6003
vn 0.0398 0.8700 -0.4915
vn -0.0398 0.8700 -0.4915
vn -0.1708 0.9826 -0.0734
usemtl Material
s off
f 57/1/1 13/2/1 9/3/1 56/4/1
f 64/5/2 14/6/2 12/7/2 53/8/2
f 8/9/3 63/10/3 54/11/3 5/12/3
f 6/13/4 58/14/4 55/15/4 7/16/4
usemtl Material.001
f 73/17/5 45/18/5 46/19/5 75/20/5
f 77/21/5 47/22/5 48/23/5 79/24/5
f 37/25/6 38/26/6 46/19/6 45/18/6
f 39/27/6 40/28/6 48/23/6 47/22/6
f 24/29/7 23/30/7 31/31/7 32/32/7
f 29/33/8 74/34/8 76/35/8 30/36/8
f 22/37/7 21/38/7 29/33/7 30/36/7
f 32/32/8 31/31/8 78/39/8 80/40/8
f 88/41/9 85/42/9 86/43/9 87/44/9
f 84/45/10 83/46/10 82/47/10 81/48/10
f 95/49/11 92/50/11 91/51/11 96/52/11
f 90/53/12 93/54/12 94/55/12 89/56/12
f 93/54/13 95/49/13 96/52/13 94/55/13
f 103/57/14 100/58/14 99/59/14 104/60/14
f 98/61/15 101/62/15 102/63/15 97/64/15
f 101/62/16 103/57/16 104/60/16 102/63/16
usemtl Material.002
f 25/65/17 7/16/17 4/66/17 20/67/17
f 24/29/18 32/32/18 3/68/18 6/13/18
f 24/29/19 6/13/19 7/16/19 25/65/19
f 41/69/20 36/70/20 10/71/20 9/3/20
f 40/28/21 13/2/21 15/72/21 48/23/21
f 40/28/22 41/69/22 9/3/22 13/2/22
f 79/24/23 48/23/23 15/72/23 50/73/23
f 53/8/24 12/7/24 16/74/24 51/75/24
f 71/76/25 33/77/25 11/78/25 60/79/25
f 60/79/26 11/78/26 14/6/26 64/5/26
f 50/73/27 15/72/27 13/2/27 57/1/27
f 56/4/28 9/3/28 10/71/28 61/80/28
f 61/80/29 10/71/29 36/70/29 65/81/29
f 20/67/30 66/82/30 93/54/30 90/53/30
f 67/83/31 35/84/31 34/85/31 69/86/31
f 18/87/32 70/88/32 101/62/32 98/61/32
f 51/75/33 16/74/33 45/18/33 73/17/33
f 75/20/5 46/19/5 47/22/5 77/21/5
f 12/7/34 14/6/34 44/89/34 37/25/34
f 37/25/35 44/89/35 43/90/35 38/26/35
f 38/26/36 43/90/36 42/91/36 39/27/36
f 39/27/37 42/91/37 41/69/37 40/28/37
f 12/7/38 37/25/38 45/18/38 16/74/38
f 38/26/6 39/27/6 47/22/6 46/19/6
f 14/6/39 11/78/39 33/77/39 44/89/39
f 44/89/40 33/77/40 34/85/40 43/90/40
f 34/85/41 35/84/41 86/43/41 85/42/41
f 42/91/42 35/84/42 36/70/42 41/69/42
f 5/12/43 21/38/43 28/92/43 8/9/43
f 21/38/44 22/37/44 27/93/44 28/92/44
f 22/37/45 23/30/45 26/94/45 27/93/45
f 23/30/46 24/29/46 25/65/46 26/94/46
f 5/12/47 2/95/47 29/33/47 21/38/47
f 22/37/7 30/36/7 31/31/7 23/30/7
f 8/9/48 28/92/48 17/96/48 1/97/48
f 28/92/49 27/93/49 18/87/49 17/96/49
f 26/94/50 19/98/50 82/47/50 83/46/50
f 26/94/51 25/65/51 20/67/51 19/98/51
f 78/39/52 77/21/52 79/24/52 80/40/52
f 30/36/8 76/35/8 78/39/8 31/31/8
f 76/35/52 75/20/52 77/21/52 78/39/52
f 74/34/52 73/17/52 75/20/52 76/35/52
f 2/95/53 52/99/53 74/34/53 29/33/53
f 52/99/54 51/75/54 73/17/54 74/34/54
f 69/86/55 34/85/55 100/58/55 103/57/55
f 33/77/56 71/76/56 104/60/56 99/59/56
f 19/98/57 68/100/57 70/88/57 18/87/57
f 68/100/58 67/83/58 69/86/58 70/88/58
f 65/81/59 36/70/59 92/50/59 95/49/59
f 35/84/60 67/83/60 96/52/60 91/51/60
f 4/66/61 62/101/61 66/82/61 20/67/61
f 62/101/58 61/80/58 65/81/58 66/82/58
f 7/16/62 55/15/62 62/101/62 4/66/62
f 55/15/63 56/4/63 61/80/63 62/101/63
f 3/68/64 49/102/64 58/14/64 6/13/64
f 49/102/65 50/73/65 57/1/65 58/14/65
f 63/10/66 64/5/66 53/8/66 54/11/66
f 1/97/67 59/103/67 63/10/67 8/9/67
f 59/103/68 60/79/68 64/5/68 63/10/68
f 17/96/69 72/104/69 59/103/69 1/97/69
f 72/104/58 71/76/58 60/79/58 59/103/58
f 58/14/70 57/1/70 56/4/70 55/15/70
f 5/12/71 54/11/71 52/99/71 2/95/71
f 54/11/72 53/8/72 51/75/72 52/99/72
f 32/32/73 80/40/73 49/102/73 3/68/73
f 80/40/74 79/24/74 50/73/74 49/102/74
f 43/90/75 34/85/75 85/42/75 88/41/75
f 19/98/76 18/87/76 81/48/76 82/47/76
f 18/87/77 27/93/77 84/45/77 81/48/77
f 35/84/78 42/91/78 87/44/78 86/43/78
f 42/91/79 43/90/79 88/41/79 87/44/79
f 27/93/80 26/94/80 83/46/80 84/45/80
f 36/70/81 35/84/81 91/51/81 92/50/81
f 67/83/82 68/100/82 94/55/82 96/52/82
f 66/82/83 65/81/83 95/49/83 93/54/83
f 19/98/84 20/67/84 90/53/84 89/56/84
f 68/100/85 19/98/85 89/56/85 94/55/85
f 71/76/86 72/104/86 102/63/86 104/60/86
f 70/88/87 69/86/87 103/57/87 101/62/87
f 34/85/88 33/77/88 99/59/88 100/58/88
f 17/96/89 18/87/89 98/61/89 97/64/89
f 72/104/90 17/96/90 97/64/90 102/63/90
