# Blender v2.82 (sub 7) OBJ File: 'SodewalkCorner.blend'
# www.blender.org
mtllib SodewalkCorner.mtl
o Cube
v 1.000000 0.250000 -1.000000
v 1.000000 0.000000 -1.000000
v 1.000000 0.000000 1.000000
v -1.000000 0.250000 -1.000000
v -1.000000 0.000000 -1.000000
v -1.000000 0.250000 1.000000
v -1.000000 0.000000 1.000000
v -0.679253 0.000000 -1.000000
v -0.679253 0.250000 0.679253
v -0.679253 0.250000 -1.000000
v -0.650266 0.250000 -1.000000
v -0.650266 0.000000 -1.000000
v -0.650266 0.250000 0.650266
v -0.664760 0.000000 -1.000000
v -0.664760 0.232244 0.664760
v -0.664760 0.232244 -1.000000
v 1.000000 0.250000 1.000000
v 1.000000 0.000000 1.000000
v 1.000000 0.250000 0.679253
v 1.000000 0.000000 0.679253
v 1.000000 0.000000 0.650266
v 1.000000 0.250000 0.650266
v 1.000000 0.232244 0.664760
v 1.000000 0.000000 0.664760
vt 0.834907 0.500000
vt 0.875000 0.500000
vt 0.875000 0.750000
vt 0.834907 0.750000
vt 0.375000 0.000000
vt 0.625000 0.000000
vt 0.625000 0.250000
vt 0.375000 0.250000
vt 0.375000 0.293717
vt 0.625000 0.293717
vt 0.625000 0.500000
vt 0.375000 0.500000
vt 0.625000 0.290093
vt 0.375000 0.290093
vt 0.833095 0.500000
vt 0.833095 0.750000
vt 0.375000 0.291905
vt 0.625000 0.291905
vt 0.831283 0.500000
vt 0.831283 0.750000
vt 0.834907 0.500000
vt 0.875000 0.500000
vt 0.875000 0.750000
vt 0.834907 0.750000
vt 0.375000 0.959907
vt 0.625000 0.959907
vt 0.625000 1.000000
vt 0.375000 1.000000
vt 0.375000 0.000000
vt 0.625000 0.000000
vt 0.625000 0.250000
vt 0.375000 0.250000
vt 0.375000 0.958095
vt 0.625000 0.958095
vt 0.833095 0.500000
vt 0.833095 0.750000
vt 0.375000 0.750000
vt 0.625000 0.750000
vt 0.625000 0.956283
vt 0.375000 0.956283
vt 0.831283 0.500000
vt 0.831283 0.750000
vn 0.0000 1.0000 0.0000
vn -1.0000 0.0000 0.0000
vn 0.0000 0.0000 -1.0000
vn 0.7747 0.6323 0.0000
vn -0.7747 0.6323 0.0000
vn 1.0000 0.0000 0.0000
vn 0.0000 0.0000 1.0000
vn -0.0000 0.6323 -0.7747
vn 0.0000 0.6323 0.7747
usemtl Material
s off
f 10/1/1 4/2/1 6/3/1 9/4/1
f 7/5/2 6/6/2 4/7/2 5/8/2
f 12/9/3 11/10/3 1/11/3 2/12/3
f 5/8/3 4/7/3 10/13/3 8/14/3
f 16/15/4 10/1/4 9/4/4 15/16/4
f 14/17/3 16/18/3 11/10/3 12/9/3
f 8/14/3 10/13/3 16/18/3 14/17/3
f 11/19/5 16/15/5 15/16/5 13/20/5
f 9/21/1 6/22/1 17/23/1 19/24/1
f 20/25/6 19/26/6 17/27/6 18/28/6
f 18/29/7 17/30/7 6/31/7 7/32/7
f 24/33/6 23/34/6 19/26/6 20/25/6
f 15/35/8 9/21/8 19/24/8 23/36/8
f 2/37/6 1/38/6 22/39/6 21/40/6
f 1/38/1 11/19/1 13/41/1 22/39/1
f 13/41/9 15/35/9 23/36/9 22/42/9
f 21/40/6 22/39/6 23/34/6 24/33/6
