# Blender v2.82 (sub 7) OBJ File: 'Street.blend'
# www.blender.org
mtllib Street.mtl
o Cube.001
v 6.000000 0.064455 -6.000000
v 6.000000 0.000000 -6.000000
v -6.000000 0.064455 -6.000000
v -6.000000 0.000000 -6.000000
v -6.000000 0.064455 6.000000
v -6.000000 0.000000 6.000000
v 6.000000 0.064455 6.000000
v 6.000000 0.000000 6.000000
v 0.000000 0.000000 6.000000
v 0.000000 0.250000 6.000000
v 0.000000 0.000000 -6.000000
v 0.000000 0.250000 -6.000000
vt 0.375000 0.000000
vt 0.625000 0.000000
vt 0.625000 0.250000
vt 0.375000 0.250000
vt 0.375000 0.125000
vt 0.625000 0.125000
vt 0.625000 0.250000
vt 0.375000 0.250000
vt 0.187500 0.125000
vt 0.000000 0.000000
vt 0.375000 0.000000
vt 0.312500 0.125000
vt 0.000000 0.000000
vt 0.625000 0.000000
vn -1.0000 0.0000 0.0000
vn 0.0000 0.0000 1.0000
vn 0.0000 -1.0000 0.0000
vn 0.0000 0.0000 -1.0000
vn 1.0000 0.0000 0.0000
vn 0.0309 0.9995 0.0000
vn -0.0309 0.9995 0.0000
usemtl Material
s off
f 6/1/1 5/2/1 3/3/1 4/4/1
f 9/5/2 10/6/2 5/7/2 6/8/2
f 9/5/3 11/9/3 2/10/3 8/11/3
f 11/9/4 4/4/4 3/3/4 12/12/4
f 1/13/5 7/14/5 8/11/5 2/10/5
f 10/6/6 7/14/6 1/13/6 12/12/6
f 5/7/7 10/6/7 12/12/7 3/3/7
f 2/10/4 11/9/4 12/12/4 1/13/4
f 6/8/3 4/4/3 11/9/3 9/5/3
f 8/11/2 7/14/2 10/6/2 9/5/2
